<svg width="23" height="16" viewBox="0 0 23 16" fill="none" xmlns="http://www.w3.org/2000/svg">
<path d="M22.7871 13.6626L19.3359 9.94962C20.2233 8.85844 20.7095 7.48552 20.7095 6.05624C20.7095 2.71688 18.083 0 14.8547 0C11.6265 0 9 2.71688 9 6.05624C9 9.3956 11.6265 12.1125 14.8547 12.1125C16.0667 12.1125 17.2216 11.7344 18.209 11.0166L21.6864 14.7578C21.8318 14.9139 22.0273 15 22.2368 15C22.4351 15 22.6232 14.9218 22.766 14.7796C23.0694 14.4776 23.0791 13.9768 22.7871 13.6626ZM14.8547 1.57989C17.2409 1.57989 19.1821 3.58793 19.1821 6.05624C19.1821 8.52456 17.2409 10.5326 14.8547 10.5326C12.4685 10.5326 10.5273 8.52456 10.5273 6.05624C10.5273 3.58793 12.4685 1.57989 14.8547 1.57989Z" fill="white"/>
<rect y="5" width="7" height="1.5" rx="0.75" fill="white"/>
<rect y="8" width="7" height="1.5" rx="0.75" fill="white"/>
<rect y="11" width="9" height="1.5" rx="0.75" fill="white"/>
<rect y="14" width="15" height="1.5" rx="0.75" fill="white"/>
</svg>
