<svg width="21" height="23" viewBox="0 0 21 23" fill="none" xmlns="http://www.w3.org/2000/svg">
<path d="M0 8.9585L2.0651 20.1275C2.26102 21.2298 3.21423 22.0364 4.3338 22.0471H16.6662C17.7858 22.0364 18.739 21.2299 18.9349 20.1275L21 8.9585H0ZM6.71886 13.9613C6.71886 14.2826 6.45842 14.543 6.13714 14.543C5.81585 14.543 5.55542 14.2826 5.55542 13.9613V12.2162C5.55542 11.8949 5.81585 11.6344 6.13714 11.6344C6.45842 11.6344 6.71886 11.8949 6.71886 12.2162V13.9613ZM15.4446 13.9613C15.4446 14.2826 15.1842 14.543 14.8629 14.543C14.5416 14.543 14.2812 14.2826 14.2812 13.9613V12.2162C14.2812 11.8949 14.5416 11.6344 14.8629 11.6344C15.1842 11.6344 15.4446 11.8949 15.4446 12.2162V13.9613Z" fill="#ED3237"/>
<path d="M6.71874 4.94458C6.71874 2.85632 8.41162 1.16344 10.4999 1.16344C12.5881 1.16344 14.281 2.85632 14.281 4.94458V8.37672H15.4445V4.94458C15.4445 2.21375 13.2307 0 10.4999 0C7.76905 0 5.5553 2.21375 5.5553 4.94458V8.37672H6.71874V4.94458Z" fill="#ED3237"/>
</svg>
