<svg width="163" height="34" viewBox="0 0 163 34" fill="none" xmlns="http://www.w3.org/2000/svg">
<path d="M82.4653 31.8418L83.5967 31.6696C83.6445 31.8869 83.7415 32.0522 83.8891 32.1643C84.0352 32.2777 84.2415 32.3337 84.5052 32.3337C84.7963 32.3337 85.0148 32.2803 85.1624 32.1738C85.2608 32.0986 85.31 31.9975 85.31 31.8719C85.31 31.7871 85.2827 31.7161 85.2294 31.6601C85.1733 31.6068 85.0476 31.5562 84.8536 31.5111C83.9449 31.3103 83.3699 31.1272 83.1266 30.9619C82.7892 30.731 82.6211 30.4112 82.6211 30.0028C82.6211 29.6324 82.7673 29.3223 83.0583 29.0709C83.3493 28.8195 83.8002 28.6938 84.4109 28.6938C84.993 28.6938 85.426 28.7895 85.7089 28.9794C85.9918 29.1707 86.1871 29.4521 86.2936 29.8251L85.2362 30.0219C85.1912 29.8551 85.1036 29.7267 84.9766 29.6379C84.8495 29.5492 84.6678 29.5054 84.4315 29.5054C84.1335 29.5054 83.9204 29.5464 83.7907 29.6298C83.7046 29.6884 83.6622 29.765 83.6622 29.858C83.6622 29.9385 83.699 30.0069 83.7742 30.0628C83.8767 30.1379 84.2278 30.2432 84.829 30.3799C85.4302 30.5165 85.8496 30.6832 86.0873 30.8813C86.3237 31.0807 86.4412 31.3608 86.4412 31.7188C86.4412 32.1083 86.2786 32.4443 85.9521 32.7243C85.627 33.0045 85.1447 33.1452 84.5052 33.1452C83.9259 33.1452 83.4668 33.0277 83.1279 32.7941C82.7905 32.5605 82.5692 32.2435 82.4653 31.8418ZM88.5331 27.169V29.3441C88.8979 28.911 89.335 28.6938 89.8419 28.6938C90.1029 28.6938 90.3379 28.7417 90.5469 28.8373C90.756 28.9343 90.9131 29.0559 91.0197 29.2062C91.1263 29.3552 91.1986 29.5205 91.2368 29.7021C91.2766 29.8839 91.2957 30.1653 91.2957 30.5465V33.0387H90.1726V30.7952C90.1726 30.3497 90.1507 30.0669 90.1083 29.9467C90.0647 29.8265 89.9882 29.7308 89.8788 29.6612C89.7696 29.5901 89.6329 29.5546 89.4676 29.5546C89.2791 29.5546 89.111 29.5997 88.962 29.6913C88.8131 29.7814 88.7051 29.918 88.6369 30.1011C88.5672 30.2828 88.5331 30.5533 88.5331 30.91V33.0387H87.41V27.169H88.5331ZM92.1714 30.8594C92.1714 30.4851 92.263 30.1229 92.4475 29.7732C92.6319 29.4221 92.8928 29.1556 93.2304 28.9711C93.5678 28.7867 93.9435 28.6938 94.3603 28.6938C95.0038 28.6938 95.5298 28.9029 95.941 29.3209C96.3523 29.7404 96.5573 30.2678 96.5573 30.9072C96.5573 31.5521 96.3496 32.0863 95.9356 32.5099C95.5203 32.9335 94.9983 33.1452 94.3685 33.1452C93.979 33.1452 93.6075 33.0564 93.2536 32.8801C92.901 32.7039 92.6319 32.4457 92.4475 32.1041C92.263 31.7639 92.1714 31.3486 92.1714 30.8594ZM93.3273 30.9196C93.3273 31.3417 93.4271 31.6656 93.6266 31.8897C93.8274 32.115 94.0733 32.227 94.3672 32.227C94.6595 32.227 94.9054 32.115 95.1035 31.8897C95.3017 31.6656 95.4014 31.339 95.4014 30.9113C95.4014 30.4946 95.3017 30.1735 95.1035 29.9495C94.9054 29.7241 94.6595 29.612 94.3672 29.612C94.0733 29.612 93.8274 29.7241 93.6266 29.9495C93.4271 30.1735 93.3273 30.4974 93.3273 30.9196ZM99.9006 31.6942L101.024 31.8827C100.88 32.294 100.652 32.607 100.342 32.8227C100.03 33.0373 99.641 33.1452 99.175 33.1452C98.4359 33.1452 97.888 32.9034 97.5342 32.4197C97.254 32.0317 97.1134 31.5425 97.1134 30.951C97.1134 30.2459 97.2978 29.6926 97.6654 29.2936C98.0328 28.8933 98.4987 28.6938 99.0616 28.6938C99.6929 28.6938 100.192 28.9029 100.558 29.3209C100.923 29.7391 101.097 30.3799 101.081 31.2434H98.2693C98.2774 31.5767 98.3676 31.8363 98.5411 32.0221C98.7133 32.208 98.9291 32.3009 99.186 32.3009C99.3623 32.3009 99.5098 32.2531 99.6287 32.1574C99.7489 32.0618 99.8391 31.9073 99.9006 31.6942ZM99.9662 30.5548C99.958 30.2281 99.8747 29.9795 99.7148 29.8101C99.5549 29.6393 99.3609 29.5546 99.1313 29.5546C98.8867 29.5546 98.6847 29.6448 98.5248 29.8238C98.3649 30.0028 98.287 30.2474 98.2898 30.5548H99.9662ZM101.599 31.8418L102.73 31.6696C102.778 31.8869 102.875 32.0522 103.023 32.1643C103.169 32.2777 103.375 32.3337 103.639 32.3337C103.93 32.3337 104.148 32.2803 104.296 32.1738C104.394 32.0986 104.444 31.9975 104.444 31.8719C104.444 31.7871 104.416 31.7161 104.363 31.6601C104.307 31.6068 104.181 31.5562 103.987 31.5111C103.079 31.3103 102.503 31.1272 102.26 30.9619C101.923 30.731 101.755 30.4112 101.755 30.0028C101.755 29.6324 101.901 29.3223 102.192 29.0709C102.483 28.8195 102.934 28.6938 103.544 28.6938C104.127 28.6938 104.56 28.7895 104.842 28.9794C105.125 29.1707 105.321 29.4521 105.427 29.8251L104.37 30.0219C104.325 29.8551 104.237 29.7267 104.11 29.6379C103.983 29.5492 103.801 29.5054 103.565 29.5054C103.267 29.5054 103.054 29.5464 102.924 29.6298C102.838 29.6884 102.796 29.765 102.796 29.858C102.796 29.9385 102.833 30.0069 102.908 30.0628C103.01 30.1379 103.361 30.2432 103.963 30.3799C104.564 30.5165 104.983 30.6832 105.221 30.8813C105.457 31.0807 105.575 31.3608 105.575 31.7188C105.575 32.1083 105.412 32.4443 105.086 32.7243C104.761 33.0045 104.278 33.1452 103.639 33.1452C103.059 33.1452 102.6 33.0277 102.261 32.7941C101.924 32.5605 101.703 32.2435 101.599 31.8418ZM114.035 32.3268L113.353 33.1944C113.02 33.0319 112.699 32.8077 112.391 32.5222C112.155 32.7354 111.902 32.8924 111.636 32.9935C111.369 33.0947 111.052 33.1452 110.683 33.1452C109.954 33.1452 109.405 32.9389 109.036 32.5277C108.75 32.2107 108.608 31.8445 108.608 31.4305C108.608 31.0534 108.72 30.7146 108.945 30.414C109.17 30.1134 109.506 29.8525 109.952 29.6311C109.752 29.3934 109.6 29.1666 109.499 28.9508C109.396 28.7348 109.346 28.5313 109.346 28.3385C109.346 27.9834 109.488 27.6814 109.772 27.4341C110.055 27.1868 110.461 27.0625 110.985 27.0625C111.491 27.0625 111.887 27.1922 112.173 27.4505C112.458 27.7101 112.6 28.0257 112.6 28.4C112.6 28.6379 112.531 28.8632 112.39 29.0763C112.249 29.2896 111.966 29.5314 111.54 29.8005L112.348 30.8867C112.443 30.7173 112.525 30.4946 112.595 30.2213L113.614 30.4495C113.513 30.8102 113.424 31.0753 113.349 31.2419C113.275 31.4087 113.195 31.5493 113.109 31.6614C113.234 31.7789 113.397 31.9073 113.596 32.0481C113.796 32.1888 113.942 32.2817 114.035 32.3268ZM110.973 29.1297L111.275 28.896C111.498 28.7225 111.608 28.5504 111.608 28.3796C111.608 28.2348 111.555 28.1118 111.447 28.0107C111.341 27.9082 111.196 27.8576 111.013 27.8576C110.835 27.8576 110.696 27.9027 110.595 27.9916C110.495 28.0818 110.444 28.1856 110.444 28.3031C110.444 28.4424 110.529 28.6105 110.698 28.8086L110.973 29.1297ZM110.533 30.3539C110.276 30.4851 110.084 30.6436 109.955 30.8281C109.828 31.0125 109.764 31.201 109.764 31.3923C109.764 31.6355 109.843 31.835 110.002 31.9879C110.159 32.1423 110.371 32.2188 110.637 32.2188C110.812 32.2188 110.981 32.1847 111.142 32.115C111.305 32.0454 111.481 31.9305 111.673 31.7693L110.533 30.3539ZM117.871 30.0956L116.855 29.9153C116.97 29.5 117.168 29.1925 117.448 28.9931C117.728 28.7936 118.145 28.6938 118.697 28.6938C119.198 28.6938 119.573 28.7526 119.818 28.8714C120.063 28.9903 120.237 29.1406 120.336 29.3237C120.436 29.5068 120.487 29.8415 120.487 30.3307L120.47 31.6423C120.47 32.0152 120.488 32.2913 120.523 32.4689C120.559 32.6465 120.626 32.8364 120.724 33.0387H119.609C119.581 32.9648 119.544 32.8556 119.501 32.7108C119.484 32.6438 119.47 32.6001 119.462 32.5796C119.271 32.7681 119.066 32.9088 118.847 33.0031C118.628 33.0973 118.396 33.1452 118.149 33.1452C117.713 33.1452 117.369 33.0263 117.117 32.7886C116.866 32.5523 116.74 32.2516 116.74 31.8882C116.74 31.6491 116.798 31.4346 116.912 31.2461C117.027 31.0589 117.187 30.9141 117.395 30.8144C117.601 30.7146 117.899 30.6271 118.288 30.552C118.813 30.4536 119.178 30.3607 119.38 30.276V30.1626C119.38 29.944 119.327 29.7882 119.22 29.6939C119.112 29.6011 118.91 29.5546 118.613 29.5546C118.413 29.5546 118.257 29.5942 118.145 29.6748C118.031 29.7541 117.941 29.8948 117.871 30.0956ZM119.38 31.0056C119.236 31.0534 119.008 31.1109 118.695 31.1778C118.384 31.2447 118.179 31.3103 118.083 31.3731C117.937 31.4783 117.863 31.6095 117.863 31.7693C117.863 31.9279 117.922 32.0631 118.04 32.1779C118.157 32.2927 118.306 32.35 118.488 32.35C118.69 32.35 118.884 32.2831 119.068 32.1506C119.204 32.0481 119.294 31.9252 119.336 31.7776C119.365 31.682 119.38 31.4989 119.38 31.2297V31.0056ZM125.3 30.0464L124.193 30.2432C124.156 30.0232 124.072 29.8579 123.939 29.7459C123.807 29.6352 123.636 29.5792 123.425 29.5792C123.145 29.5792 122.921 29.6763 122.755 29.8702C122.588 30.0643 122.505 30.388 122.505 30.8431C122.505 31.3486 122.589 31.7051 122.759 31.9142C122.928 32.1233 123.155 32.227 123.439 32.227C123.652 32.227 123.827 32.1656 123.962 32.0439C124.099 31.9223 124.195 31.7133 124.251 31.4155L125.357 31.604C125.243 32.1123 125.023 32.4962 124.697 32.7558C124.372 33.0155 123.936 33.1452 123.389 33.1452C122.768 33.1452 122.272 32.9485 121.903 32.5563C121.533 32.1628 121.349 31.619 121.349 30.9236C121.349 30.22 121.534 29.6734 121.905 29.2814C122.275 28.8892 122.776 28.6938 123.409 28.6938C123.925 28.6938 124.337 28.8059 124.643 29.0286C124.947 29.2513 125.166 29.5901 125.3 30.0464ZM129.859 30.0464L128.753 30.2432C128.716 30.0232 128.631 29.8579 128.499 29.7459C128.366 29.6352 128.195 29.5792 127.985 29.5792C127.705 29.5792 127.481 29.6763 127.314 29.8702C127.147 30.0643 127.064 30.388 127.064 30.8431C127.064 31.3486 127.149 31.7051 127.318 31.9142C127.487 32.1233 127.714 32.227 127.998 32.227C128.212 32.227 128.386 32.1656 128.522 32.0439C128.658 31.9223 128.754 31.7133 128.81 31.4155L129.917 31.604C129.802 32.1123 129.582 32.4962 129.257 32.7558C128.932 33.0155 128.496 33.1452 127.948 33.1452C127.328 33.1452 126.832 32.9485 126.463 32.5563C126.092 32.1628 125.908 31.619 125.908 30.9236C125.908 30.22 126.094 29.6734 126.464 29.2814C126.834 28.8892 127.336 28.6938 127.968 28.6938C128.485 28.6938 128.896 28.8059 129.202 29.0286C129.507 29.2513 129.725 29.5901 129.859 30.0464ZM133.173 31.6942L134.296 31.8827C134.152 32.294 133.924 32.607 133.614 32.8227C133.302 33.0373 132.913 33.1452 132.447 33.1452C131.708 33.1452 131.16 32.9034 130.806 32.4197C130.526 32.0317 130.385 31.5425 130.385 30.951C130.385 30.2459 130.57 29.6926 130.937 29.2936C131.305 28.8933 131.771 28.6938 132.334 28.6938C132.965 28.6938 133.464 28.9029 133.83 29.3209C134.195 29.7391 134.369 30.3799 134.353 31.2434H131.541C131.549 31.5767 131.64 31.8363 131.813 32.0221C131.985 32.208 132.201 32.3009 132.458 32.3009C132.634 32.3009 132.782 32.2531 132.901 32.1574C133.021 32.0618 133.111 31.9073 133.173 31.6942ZM133.238 30.5548C133.23 30.2281 133.147 29.9795 132.987 29.8101C132.827 29.6393 132.633 29.5546 132.403 29.5546C132.159 29.5546 131.957 29.6448 131.797 29.8238C131.637 30.0028 131.559 30.2474 131.562 30.5548H133.238ZM134.871 31.8418L136.002 31.6696C136.05 31.8869 136.147 32.0522 136.295 32.1643C136.441 32.2777 136.647 32.3337 136.911 32.3337C137.202 32.3337 137.42 32.2803 137.568 32.1738C137.666 32.0986 137.715 31.9975 137.715 31.8719C137.715 31.7871 137.688 31.7161 137.635 31.6601C137.579 31.6068 137.453 31.5562 137.259 31.5111C136.35 31.3103 135.775 31.1272 135.532 30.9619C135.195 30.731 135.027 30.4112 135.027 30.0028C135.027 29.6324 135.173 29.3223 135.464 29.0709C135.755 28.8195 136.206 28.6938 136.816 28.6938C137.399 28.6938 137.832 28.7895 138.114 28.9794C138.397 29.1707 138.593 29.4521 138.699 29.8251L137.642 30.0219C137.597 29.8551 137.509 29.7267 137.382 29.6379C137.255 29.5492 137.073 29.5054 136.837 29.5054C136.539 29.5054 136.326 29.5464 136.196 29.6298C136.11 29.6884 136.068 29.765 136.068 29.858C136.068 29.9385 136.105 30.0069 136.18 30.0628C136.282 30.1379 136.633 30.2432 137.235 30.3799C137.836 30.5165 138.255 30.6832 138.493 30.8813C138.729 31.0807 138.847 31.3608 138.847 31.7188C138.847 32.1083 138.684 32.4443 138.358 32.7243C138.033 33.0045 137.55 33.1452 136.911 33.1452C136.331 33.1452 135.872 33.0277 135.533 32.7941C135.196 32.5605 134.975 32.2435 134.871 31.8418ZM139.43 31.8418L140.561 31.6696C140.609 31.8869 140.706 32.0522 140.854 32.1643C141 32.2777 141.206 32.3337 141.47 32.3337C141.761 32.3337 141.98 32.2803 142.127 32.1738C142.226 32.0986 142.275 31.9975 142.275 31.8719C142.275 31.7871 142.247 31.7161 142.194 31.6601C142.138 31.6068 142.012 31.5562 141.818 31.5111C140.91 31.3103 140.335 31.1272 140.091 30.9619C139.754 30.731 139.586 30.4112 139.586 30.0028C139.586 29.6324 139.732 29.3223 140.023 29.0709C140.314 28.8195 140.765 28.6938 141.376 28.6938C141.958 28.6938 142.391 28.7895 142.674 28.9794C142.957 29.1707 143.152 29.4521 143.259 29.8251L142.201 30.0219C142.156 29.8551 142.068 29.7267 141.941 29.6379C141.814 29.5492 141.633 29.5054 141.396 29.5054C141.098 29.5054 140.885 29.5464 140.756 29.6298C140.669 29.6884 140.627 29.765 140.627 29.858C140.627 29.9385 140.664 30.0069 140.739 30.0628C140.842 30.1379 141.193 30.2432 141.794 30.3799C142.395 30.5165 142.815 30.6832 143.052 30.8813C143.289 31.0807 143.406 31.3608 143.406 31.7188C143.406 32.1083 143.244 32.4443 142.917 32.7243C142.592 33.0045 142.109 33.1452 141.47 33.1452C140.891 33.1452 140.432 33.0277 140.093 32.7941C139.755 32.5605 139.534 32.2435 139.43 31.8418ZM144.129 30.8594C144.129 30.4851 144.22 30.1229 144.405 29.7732C144.589 29.4221 144.85 29.1556 145.188 28.9711C145.525 28.7867 145.901 28.6938 146.318 28.6938C146.961 28.6938 147.487 28.9029 147.898 29.3209C148.31 29.7404 148.515 30.2678 148.515 30.9072C148.515 31.5521 148.307 32.0863 147.893 32.5099C147.478 32.9335 146.956 33.1452 146.326 33.1452C145.936 33.1452 145.565 33.0564 145.211 32.8801C144.858 32.7039 144.589 32.4457 144.405 32.1041C144.22 31.7639 144.129 31.3486 144.129 30.8594ZM145.285 30.9196C145.285 31.3417 145.385 31.6656 145.584 31.8897C145.785 32.115 146.031 32.227 146.325 32.227C146.617 32.227 146.863 32.115 147.061 31.8897C147.259 31.6656 147.359 31.339 147.359 30.9113C147.359 30.4946 147.259 30.1735 147.061 29.9495C146.863 29.7241 146.617 29.612 146.325 29.612C146.031 29.612 145.785 29.7241 145.584 29.9495C145.385 30.1735 145.285 30.4974 145.285 30.9196ZM150.473 33.0387H149.349V28.784H150.391V29.3879C150.569 29.1024 150.731 28.9151 150.874 28.8263C151.018 28.7376 151.18 28.6938 151.362 28.6938C151.619 28.6938 151.866 28.7648 152.104 28.9056L151.755 29.8866C151.566 29.7636 151.389 29.7021 151.227 29.7021C151.068 29.7021 150.934 29.7459 150.825 29.832C150.716 29.9194 150.63 30.0751 150.567 30.302C150.504 30.5288 150.473 31.0043 150.473 31.727V33.0387ZM152.589 28.2102V27.169H153.712V28.2102H152.589ZM152.589 33.0387V28.784H153.712V33.0387H152.589ZM157.326 31.6942L158.449 31.8827C158.306 32.294 158.077 32.607 157.767 32.8227C157.456 33.0373 157.066 33.1452 156.6 33.1452C155.861 33.1452 155.313 32.9034 154.96 32.4197C154.679 32.0317 154.539 31.5425 154.539 30.951C154.539 30.2459 154.723 29.6926 155.091 29.2936C155.458 28.8933 155.924 28.6938 156.487 28.6938C157.118 28.6938 157.617 28.9029 157.983 29.3209C158.348 29.7391 158.523 30.3799 158.506 31.2434H155.695C155.703 31.5767 155.793 31.8363 155.966 32.0221C156.139 32.208 156.354 32.3009 156.611 32.3009C156.788 32.3009 156.935 32.2531 157.054 32.1574C157.174 32.0618 157.264 31.9073 157.326 31.6942ZM157.392 30.5548C157.383 30.2281 157.3 29.9795 157.14 29.8101C156.98 29.6393 156.786 29.5546 156.557 29.5546C156.312 29.5546 156.11 29.6448 155.95 29.8238C155.79 30.0028 155.712 30.2474 155.715 30.5548H157.392ZM159.024 31.8418L160.156 31.6696C160.203 31.8869 160.3 32.0522 160.448 32.1643C160.594 32.2777 160.8 32.3337 161.064 32.3337C161.355 32.3337 161.574 32.2803 161.721 32.1738C161.82 32.0986 161.869 31.9975 161.869 31.8719C161.869 31.7871 161.842 31.7161 161.788 31.6601C161.732 31.6068 161.606 31.5562 161.413 31.5111C160.504 31.3103 159.929 31.1272 159.685 30.9619C159.348 30.731 159.18 30.4112 159.18 30.0028C159.18 29.6324 159.326 29.3223 159.617 29.0709C159.908 28.8195 160.359 28.6938 160.97 28.6938C161.552 28.6938 161.985 28.7895 162.268 28.9794C162.551 29.1707 162.746 29.4521 162.853 29.8251L161.795 30.0219C161.75 29.8551 161.663 29.7267 161.535 29.6379C161.408 29.5492 161.227 29.5054 160.99 29.5054C160.692 29.5054 160.479 29.5464 160.35 29.6298C160.263 29.6884 160.221 29.765 160.221 29.858C160.221 29.9385 160.258 30.0069 160.333 30.0628C160.436 30.1379 160.787 30.2432 161.388 30.3799C161.989 30.5165 162.409 30.6832 162.646 30.8813C162.883 31.0807 163 31.3608 163 31.7188C163 32.1083 162.838 32.4443 162.511 32.7243C162.186 33.0045 161.704 33.1452 161.064 33.1452C160.485 33.1452 160.026 33.0277 159.687 32.7941C159.349 32.5605 159.128 32.2435 159.024 31.8418Z" fill="#ED3237"/>
<path d="M12.2937 23.4351H0V19.0536L1.30025 19.0218C1.65434 19.0007 1.88692 18.9373 1.99791 18.8262C2.1142 18.7206 2.18283 18.4775 2.21457 18.0969C2.24632 17.7216 2.26223 16.987 2.26223 15.8929V14.1118C2.26223 13.1076 2.25684 12.1562 2.24632 11.2471C2.23579 10.3381 2.22518 9.41314 2.21457 8.46707C2.20405 7.521 2.19352 6.60136 2.18283 5.70287V5.45446C2.15647 5.11097 1.7548 4.87831 0.993733 4.7568H0.761152H0V0.380616H13.2292C14.9628 0.380616 16.3634 0.618414 17.4257 1.09402C18.488 1.56971 19.2703 2.3467 19.7724 3.43019C20.2745 4.51891 20.5229 5.98303 20.5229 7.83282C20.4912 10.3804 19.9574 12.2408 18.9267 13.4089C17.8961 14.5769 16.3158 15.1583 14.1911 15.1583H9.99982V18.3612C9.99982 18.451 10.0791 18.6042 10.2324 18.8104C10.375 18.9531 10.5707 19.0271 10.8192 19.0271L12.2937 19.0589V23.4351ZM10.0951 10.7504H11.2367C11.7916 10.7504 12.2144 10.6922 12.5051 10.5812C12.7905 10.465 13.002 10.2535 13.1287 9.93641C13.2609 9.62459 13.356 9.12776 13.4142 8.45655V7.09288C13.3455 6.17856 13.1605 5.55491 12.8698 5.23771C12.5738 4.91536 12.0505 4.7568 11.3001 4.7568H10.0951V10.7504ZM38.9527 15.3169C38.9527 15.819 38.9422 16.2312 38.921 16.5536H28.546V17.9806C28.546 18.6201 28.6675 19.1064 28.9107 19.4288C29.1538 19.7565 29.4974 19.9521 29.9413 20.0155C31.0776 20.0155 31.659 19.6296 31.6908 18.8633L31.7542 17.7163H38.5987V22.5154C36.6748 23.1761 34.5765 23.5831 32.2933 23.7363C31.7277 23.7892 30.9297 23.8156 29.9096 23.8156C28.25 23.8156 26.8547 23.6729 25.729 23.3876C24.6031 23.1074 23.7047 22.6687 23.0229 22.082C22.341 21.4954 21.8389 20.7554 21.5219 19.8622C21.1994 18.9689 20.9986 17.8379 20.914 16.4796C20.914 15.2798 20.9246 14.339 20.9457 13.6572C21.062 12.2249 21.2522 11.0727 21.5272 10.2007C21.8019 9.3339 22.2142 8.64155 22.7639 8.12889C23.3188 7.62146 24.0694 7.23562 25.026 6.9819C25.9826 6.72296 27.2088 6.55379 28.7046 6.46924H31.2099C32.917 6.58023 34.2488 6.78637 35.2213 7.08758C36.1939 7.38888 36.9443 7.84343 37.4834 8.45655C38.0173 9.06958 38.3978 9.91005 38.6198 10.9723C38.8418 12.0347 38.9527 13.4829 38.9527 15.3169ZM31.659 13.3189L31.6273 11.7228C31.6273 11.2471 31.5005 10.8719 31.2415 10.5918C30.9825 10.3169 30.6495 10.1743 30.232 10.1743C30.0998 10.1743 29.9308 10.1953 29.7246 10.2377C29.3335 10.3328 29.0481 10.5337 28.8738 10.8402C28.694 11.152 28.5883 11.6541 28.546 12.3571C28.546 12.3359 28.5406 12.4574 28.5301 12.7165C28.5196 12.9755 28.5143 13.1763 28.5143 13.3189H31.659ZM51.9705 23.4351H39.9253V19.0853H40.4644H40.7127C41.1885 19.0536 41.5162 18.9954 41.7011 18.9108C41.8914 18.8316 42.0076 18.6677 42.0605 18.4245C42.1134 18.1815 42.145 17.7481 42.1662 17.1138L42.2455 15.1477V14.8412V12.9332C42.2455 12.4311 42.2138 12.0717 42.1504 11.8655C42.0922 11.6595 41.9759 11.5167 41.8069 11.4321C41.6324 11.3476 41.3311 11.2948 40.8978 11.263H40.6811H39.9253V6.91319H49.1376V9.3286C49.2063 9.03791 49.2908 8.80533 49.3807 8.63094C49.8035 7.81699 50.3056 7.21979 50.8764 6.84447C51.4471 6.46924 52.2189 6.27902 53.1913 6.27902C54.0264 6.27902 55.1047 6.42697 56.426 6.72818C56.8277 6.81811 57.113 6.89214 57.2768 6.94493V14.0166H51.5371V11.448C51.5371 11.0569 51.4524 10.745 51.2781 10.5178C51.0719 10.2535 50.8288 10.1161 50.554 10.1161C50.3901 10.1161 50.2104 10.19 50.0148 10.3328C49.7982 10.5072 49.6607 10.6922 49.5974 10.8772C49.5392 11.0622 49.5075 11.411 49.5075 11.9289V17.4415C49.5075 17.9278 49.5392 18.2713 49.6079 18.4775C49.6714 18.6835 49.7982 18.8316 49.9832 18.9108C50.1681 18.9954 50.4641 19.0536 50.8764 19.0853H51.1248H51.9705V23.4351ZM70.0409 23.4351H58.2705V19.0906H58.9999H59.2166C59.5655 19.0589 59.8244 19.0166 59.983 18.9584C60.1416 18.9002 60.2631 18.7946 60.3371 18.6308C60.4164 18.4722 60.4587 18.2607 60.4693 17.9965C60.4798 17.7322 60.4851 17.2777 60.4851 16.6223L60.5168 11.3211H58.2705V6.91319H60.5485V3.4883C60.5485 2.83821 60.6384 2.29912 60.8181 1.87631C60.9978 1.45351 61.3043 1.10472 61.7324 0.835086C62.1605 0.570843 62.7419 0.369921 63.4713 0.232577C64.2059 0.100455 65.1679 0.0212191 66.3518 0C66.7747 0 67.097 0.0106102 67.3138 0.0317464C69.1055 0.0634921 70.6011 0.147953 71.7903 0.295989C72.9848 0.438638 74.2216 0.687127 75.5112 1.036V5.93014H69.8031L69.7714 5.2959C69.7132 4.19126 69.3855 3.63633 68.7989 3.63633C68.6773 3.63633 68.5241 3.66799 68.3496 3.73148C68.2968 3.76323 68.2545 3.78959 68.2122 3.81073C68.1699 3.83195 68.1329 3.853 68.1012 3.88474C67.9268 4.04322 67.821 4.20187 67.7788 4.36043C67.7365 4.51891 67.7154 4.83081 67.7154 5.3012V6.91319H72.2766V11.3211H67.7471V16.6541C67.7471 17.505 67.7682 18.0705 67.8158 18.3506C67.8634 18.636 67.9849 18.821 68.1804 18.9056C68.376 18.9848 68.7461 19.0376 69.2798 19.0589C69.3644 19.0799 69.4754 19.0906 69.6181 19.0906H70.0409V23.4351ZM90.4845 15.3169C90.4845 15.819 90.474 16.2312 90.4528 16.5536H80.0778V17.9806C80.0778 18.6201 80.1993 19.1064 80.4425 19.4288C80.6855 19.7565 81.0292 19.9521 81.4731 20.0155C82.6094 20.0155 83.1908 19.6296 83.2225 18.8633L83.2859 17.7163H90.1304V22.5154C88.2066 23.1761 86.1082 23.5831 83.825 23.7363C83.2595 23.7892 82.4614 23.8156 81.4414 23.8156C79.7817 23.8156 78.3865 23.6729 77.2607 23.3876C76.1349 23.1074 75.2364 22.6687 74.5546 22.082C73.8728 21.4954 73.3707 20.7554 73.0536 19.8622C72.7312 18.9689 72.5303 17.8379 72.4458 16.4796C72.4458 15.2798 72.4563 14.339 72.4775 13.6572C72.5938 12.2249 72.784 11.0727 73.0589 10.2007C73.3337 9.3339 73.746 8.64155 74.2957 8.12889C74.8506 7.62146 75.6011 7.23562 76.5577 6.9819C77.5143 6.72296 78.7406 6.55379 80.2364 6.46924H82.7416C84.4487 6.58023 85.7806 6.78637 86.7531 7.08758C87.7256 7.38888 88.4761 7.84343 89.0152 8.45655C89.549 9.06958 89.9296 9.91005 90.1515 10.9723C90.3735 12.0347 90.4845 13.4829 90.4845 15.3169ZM83.1908 13.3189L83.1591 11.7228C83.1591 11.2471 83.0323 10.8719 82.7733 10.5918C82.5143 10.3169 82.1813 10.1743 81.7638 10.1743C81.6316 10.1743 81.4626 10.1953 81.2564 10.2377C80.8652 10.3328 80.5798 10.5337 80.4055 10.8402C80.2257 11.152 80.1201 11.6541 80.0778 12.3571C80.0778 12.3359 80.0724 12.4574 80.0619 12.7165C80.0513 12.9755 80.046 13.1763 80.046 13.3189H83.1908ZM108.745 7.13516L109.475 7.30433V13.06H103.259V12.2725C103.259 11.559 103.132 11.0357 102.873 10.708C102.614 10.375 102.17 10.2113 101.541 10.2113C101.055 10.2958 100.727 10.4966 100.553 10.8138C100.373 11.1361 100.241 11.7915 100.151 12.7798C100.141 12.8645 100.13 12.9385 100.125 13.0018C100.12 13.0705 100.109 13.1657 100.088 13.2925L100.056 14.2333V15.116L100.024 16.1097V16.802V17.2829C100.088 18.2133 100.22 18.858 100.421 19.2174C100.622 19.5768 100.944 19.7988 101.388 19.8833C101.864 19.8833 102.234 19.8146 102.503 19.6825C102.768 19.5503 102.958 19.3389 103.064 19.0483C103.174 18.7576 103.238 18.3348 103.259 17.7798V17.1138V16.8971H109.802V22.7638L109.041 22.9171L107.958 23.1497C105.511 23.6148 103.449 23.8473 101.774 23.8473C101.589 23.8367 101.42 23.8262 101.261 23.8209C101.108 23.8156 100.918 23.8156 100.69 23.8156C99.0466 23.731 97.7148 23.5355 96.6947 23.2289C95.6694 22.9171 94.8502 22.4362 94.2265 21.7808C93.6081 21.1254 93.1642 20.2744 92.8893 19.2174C92.6145 18.1656 92.4771 16.8496 92.4771 15.2587C92.4771 13.5252 92.6038 12.1192 92.8629 11.041C93.1219 9.96285 93.5552 9.11193 94.1683 8.4829C94.7761 7.85395 95.6112 7.38357 96.6788 7.08236C97.7412 6.77576 99.1524 6.58023 100.907 6.50099C101.145 6.47977 101.515 6.46924 102.022 6.46924C103.497 6.46924 105.014 6.58554 106.562 6.82342C106.726 6.84447 106.948 6.87621 107.218 6.90788C107.493 6.94493 107.752 6.9819 107.984 7.00834L108.745 7.13516ZM112.577 11.2578H110.923V6.91319H112.577V2.46829H119.807V6.91319H124.384V11.2578H119.776V18.6783C119.776 19.2386 119.828 19.5926 119.934 19.7512C120.098 20.0895 120.362 20.2587 120.722 20.2587C120.949 20.2587 121.16 20.1793 121.351 20.0208C121.541 19.8622 121.668 19.6825 121.731 19.487C121.795 19.2914 121.826 18.9426 121.837 18.451L121.869 18.0176H126.414L126.536 22.8907C125.637 23.1285 124.495 23.361 123.111 23.5883C121.551 23.8262 119.765 23.9425 117.751 23.9425C116.377 23.9002 115.315 23.747 114.559 23.4773C113.809 23.2079 113.285 22.7902 113.005 22.2247C112.72 21.6539 112.577 20.8664 112.577 19.8517V11.2578ZM128.555 11.2578H126.9V6.91319H128.555V2.46829H135.785V6.91319H140.362V11.2578H135.753V18.6783C135.753 19.2386 135.806 19.5926 135.912 19.7512C136.076 20.0895 136.34 20.2587 136.699 20.2587C136.926 20.2587 137.138 20.1793 137.328 20.0208C137.518 19.8622 137.645 19.6825 137.709 19.487C137.772 19.2914 137.804 18.9426 137.814 18.451L137.846 18.0176H142.391L142.513 22.8907C141.615 23.1285 140.473 23.361 139.088 23.5883C137.529 23.8262 135.743 23.9425 133.729 23.9425C132.355 23.9002 131.292 23.747 130.536 23.4773C129.786 23.2079 129.263 22.7902 128.983 22.2247C128.697 21.6539 128.555 20.8664 128.555 19.8517V11.2578ZM143.834 16.7438V13.5093C143.929 12.1087 144.104 10.9723 144.368 10.1108C144.633 9.25466 145.045 8.56231 145.61 8.04948C146.17 7.53161 146.926 7.15107 147.878 6.90788C148.829 6.67016 150.034 6.52204 151.503 6.46924H154.199C155.673 6.52204 156.884 6.67016 157.83 6.90788C158.771 7.15107 159.526 7.53161 160.081 8.03896C160.642 8.55162 161.054 9.23344 161.329 10.0844C161.604 10.9354 161.783 12.077 161.878 13.5093V16.7438C161.783 18.1762 161.604 19.3231 161.329 20.1793C161.054 21.0356 160.647 21.7174 160.097 22.23C159.548 22.7427 158.802 23.1179 157.862 23.361C156.916 23.6042 155.695 23.7522 154.199 23.8156H151.503C150.013 23.7522 148.797 23.6042 147.846 23.361C146.895 23.1179 146.144 22.7374 145.594 22.2141C145.039 21.6909 144.633 21.0038 144.368 20.1424C144.104 19.2808 143.929 18.1445 143.834 16.7438ZM151.192 12.4258V17.8273C151.255 18.4775 151.329 18.9426 151.424 19.2174C151.519 19.4975 151.667 19.6825 151.873 19.7777C152.079 19.8675 152.402 19.915 152.835 19.915C153.279 19.915 153.607 19.8675 153.824 19.7777C154.04 19.6825 154.194 19.4975 154.289 19.2174C154.384 18.9426 154.458 18.4775 154.521 17.8273V12.4258C154.426 11.5008 154.289 10.9194 154.093 10.6869C153.903 10.4543 153.485 10.3381 152.835 10.3381C152.201 10.3381 151.794 10.4543 151.609 10.6922C151.424 10.9301 151.287 11.5061 151.192 12.4258Z" fill="#ED3237"/>
</svg>
